RL: A/B Testing
…
# Simulating a sample of 30 individuals for group A and Group B
sample_money_donated <- 
    tibble(group = c("Website A", "Website B"), 
            amount = list(
                if_else(runif(30) < 0.5, 0, rnorm(30, 80, 10) ), 
                if_else(runif(30) < 0.6, 0, rnorm(30, 100, 20) ))
            ) %>% 
    unnest(cols = amount) %>%
    sample_n(60)

sample_money_donated

    ## # A tibble: 60 x 2
    ##    group     amount
    ##          
    ##  1 Website B    0  
    ##  2 Website B    0  
    ##  3 Website B    0  
    ##  4 Website A    0  
    ##  5 Website A   87.8
    ##  6 Website B    0  
    ##  7 Website A   66.2
    ##  8 Website A    0  
    ##  9 Website B   88.6
    ## 10 Website A    0  
    ## # ... with 50 more rows 
…
# Simulating a sample of 30 individuals for group A and Group B
sample_subscriber <- 
    tibble(website = factor(c("A", "B")), 
            subscribed = list(
                sample(factor(c("yes", "no")), 30, replace = TRUE, p=c(0.42, 0.58)), 
                sample(factor(c("yes", "no")), 30, replace = TRUE, p=c(0.37, 0.58)))
            ) %>% 
    unnest(cols = subscribed) %>%
    sample_n(60)

sample_subscriber

    ## # A tibble: 60 x 2
    ##    website subscribed
    ##    <fct>   <fct>     
    ##  1 B       no        
    ##  2 B       yes       
    ##  3 A       yes       
    ##  4 A       no        
    ##  5 B       no        
    ##  6 A       no        
    ##  7 A       no        
    ##  8 B       no        
    ##  9 A       yes       
    ## 10 A       no        
    ## # ... with 50 more rows
…
